…
```
## v Reading from "ballparklist_mlb".
```

```
## v Range 'ì‹œíŠ¸1'.
```

```r
as_tibble(mlbpark)
```

```
## # A tibble: 30 x 11
##    Name      Capac~1 Locat~2 Surface Team 
##    <chr>     <list>  <chr>   <chr>   <chr>
##  1 American~ <chr>   Milwau~ Grass   Milw~
##  2 Angel St~ <chr>   Anahei~ Grass   Los ~
##  3 Busch St~ <chr>   St. Lo~ Grass   St. ~
##  4 Chase Fi~ <chr>   Phoeni~ Artifi~ Ariz~
##  5 Citi Fie~ <chr>   Queens~ Grass   New ~
##  6 Citizens~ <chr>   Philad~ Grass   Phil~
##  7 Comerica~ <chr>   Detroi~ Grass   Detr~
##  8 Coors Fi~ <chr>   Denver~ Grass   Colo~
##  9 Dodger S~ <chr>   Los An~ Grass   Los ~
## 10 Fenway P~ <chr>   Boston~ Grass   Bost~
## # ... with 20 more rows, 6 more
## #   variables: Opened <list>,
## #   `Distance to center field` <chr>,
## #   Type <chr>, Rooftype <chr>,
## #   Cost <dbl>, url <chr>, and
## #   abbreviated variable names
## #   1: Capacity, 2: Location
```
…
```r
n_distinct(mlb_color$`Color 1`)
```

```
## [1] 29
```

```r
mlb_color%>% group_by(`Color 1`) %>%
  summarize(n = n())
```

```
## # A tibble: 29 x 2
##    `Color 1`               n
##    <chr>               <int>
##  1 Black #27251F           2
##  2 Blue #002D72            1
##  3 Blue #003087            1
##  4 Blue #003263            1
##  5 Blue #003278            1
##  6 Blue #0E3386            1
##  7 Blue #134A8E            1
##  8 Brown #2F241D           1
##  9 Dodger Blue #005A9C     1
## 10 Green #003831           1
## # ... with 19 more rows
```
…
